Supplemental - Power analyses and simulations in R
…
     [,1] [,2]
[1,] 1.00 0.13
[2,] 0.13 1.00

# Fit a Pearson's correlation
cor(data[,1], data[,2]) 

[1] 0.13

# Save the data in a tibble
print(sim_df <- tibble(vocab=data[, 1]*vocab_sd, rt=data[, 2]*rt_sd))

# A tibble: 200 x 2
    vocab    rt
    <dbl> <dbl>
 1   32.9  766.
 2   12.2  225.
 3  -70.6  472.
 4  283.   503.
 5  312.  1335.
 6 -135.   208.
 7  113.   453.
 8  144.   436.
 9  170.   630.
10   54.0  668.
#  with 190 more rows
…
